^C:\USERS\BOBMA\SOURCE\REPOS\SB_PRACTIC13.4\MAIN.CPP|C:\USERS\BOBMA\SOURCE\REPOS\SB_PRACTIC13.4\SB_PRACTIC13.4.CPP
C:\USERS\BOBMA\SOURCE\REPOS\SB_PRACTIC13.4\X64\DEBUG\VC143.PDB
C:\USERS\BOBMA\SOURCE\REPOS\SB_PRACTIC13.4\X64\DEBUG\VC143.IDB
C:\USERS\BOBMA\SOURCE\REPOS\SB_PRACTIC13.4\X64\DEBUG\SB_PRACTIC13.4.OBJ
C:\USERS\BOBMA\SOURCE\REPOS\SB_PRACTIC13.4\X64\DEBUG\MAIN.OBJ
^C:\USERS\BOBMA\SOURCE\REPOS\SB_PRACTIC13.4\SB_PRACTIC13.4.CPP
C:\USERS\BOBMA\SOURCE\REPOS\SB_PRACTIC13.4\X64\DEBUG\VC143.PDB
C:\USERS\BOBMA\SOURCE\REPOS\SB_PRACTIC13.4\X64\DEBUG\VC143.IDB
C:\USERS\BOBMA\SOURCE\REPOS\SB_PRACTIC13.4\X64\DEBUG\SB_PRACTIC13.4.OBJ
^C:\USERS\BOBMA\SOURCE\REPOS\SB_PRACTIC13.4\MAIN.CPP
C:\USERS\BOBMA\SOURCE\REPOS\SB_PRACTIC13.4\X64\DEBUG\VC143.PDB
C:\USERS\BOBMA\SOURCE\REPOS\SB_PRACTIC13.4\X64\DEBUG\VC143.IDB
C:\USERS\BOBMA\SOURCE\REPOS\SB_PRACTIC13.4\X64\DEBUG\MAIN.OBJ
