^C:\USERS\BOBMA\SOURCE\REPOS\SB_PRACTIC13.4\X64\DEBUG\MAIN.OBJ|C:\USERS\BOBMA\SOURCE\REPOS\SB_PRACTIC13.4\X64\DEBUG\SB_PRACTIC13.4.OBJ
C:\USERS\BOBMA\SOURCE\REPOS\SB_PRACTIC13.4\X64\DEBUG\SB_PRACTIC13.4.EXE
C:\USERS\BOBMA\SOURCE\REPOS\SB_PRACTIC13.4\X64\DEBUG\SB_PRACTIC13.4.ILK
C:\USERS\BOBMA\SOURCE\REPOS\SB_PRACTIC13.4\X64\DEBUG\SB_PRACTIC13.4.PDB
